<?xml version="1.0" encoding="UTF-8" standalone="no"?>
<!-- Created with Inkscape (http://www.inkscape.org/) -->

<svg
   version="1.0"
   width="450"
   height="270"
   id="svg2"
   sodipodi:docname="axb.svg"
   inkscape:version="1.2.1 (9c6d41e410, 2022-07-14)"
   xmlns:inkscape="http://www.inkscape.org/namespaces/inkscape"
   xmlns:sodipodi="http://sodipodi.sourceforge.net/DTD/sodipodi-0.dtd"
   xmlns="http://www.w3.org/2000/svg"
   xmlns:svg="http://www.w3.org/2000/svg">
  <sodipodi:namedview
     id="namedview74"
     pagecolor="#ffffff"
     bordercolor="#666666"
     borderopacity="1.0"
     inkscape:showpageshadow="2"
     inkscape:pageopacity="0.0"
     inkscape:pagecheckerboard="0"
     inkscape:deskcolor="#d1d1d1"
     showgrid="false"
     inkscape:zoom="2.4481608"
     inkscape:cx="172.17006"
     inkscape:cy="142.76023"
     inkscape:window-width="1920"
     inkscape:window-height="1001"
     inkscape:window-x="-9"
     inkscape:window-y="-9"
     inkscape:window-maximized="1"
     inkscape:current-layer="svg2" />
  <defs
     id="defs5" />
  <path
     d="m 280.5,219.5 49.06384,-29.06384"
     style="fill:none;fill-rule:evenodd;stroke:#000000;stroke-width:1;stroke-linecap:butt;stroke-linejoin:miter;stroke-miterlimit:4;stroke-dasharray:none;stroke-opacity:1"
     id="path2930" />
  <path
     d="m 380.5,219.5 49.06384,-29.06384"
     style="fill:none;fill-rule:evenodd;stroke:#000000;stroke-width:1;stroke-linecap:butt;stroke-linejoin:miter;stroke-miterlimit:4;stroke-dasharray:none;stroke-opacity:1"
     id="path2928" />
  <path
     d="M 380.5,119.5 429.56384,90.436162"
     style="fill:none;fill-rule:evenodd;stroke:#000000;stroke-width:1;stroke-linecap:butt;stroke-linejoin:miter;stroke-miterlimit:4;stroke-dasharray:none;stroke-opacity:1"
     id="path2926" />
  <path
     d="M 280.5,119.5 329.56384,90.436162"
     style="fill:none;fill-rule:evenodd;stroke:#000000;stroke-width:1;stroke-linecap:butt;stroke-linejoin:miter;stroke-miterlimit:4;stroke-dasharray:none;stroke-opacity:1"
     id="path2924" />
  <path
     d="M 330.46808,49.531922 379.53192,20.468081"
     style="fill:none;fill-rule:evenodd;stroke:#000000;stroke-width:1;stroke-linecap:butt;stroke-linejoin:miter;stroke-miterlimit:4;stroke-dasharray:none;stroke-opacity:1"
     id="path2035" />
  <path
     d="M 195.5001,173.78461 V 94.39615"
     style="fill:none;fill-rule:evenodd;stroke:#000000;stroke-width:0.68443px;stroke-linecap:butt;stroke-linejoin:miter;stroke-opacity:1"
     id="path1925" />
  <path
     d="M 20.888202,119.11186 C 69.112266,50.887791 69.112266,50.887791 69.112266,50.887791"
     style="fill:none;fill-rule:evenodd;stroke:#000000;stroke-width:1;stroke-linecap:butt;stroke-linejoin:miter;stroke-miterlimit:4;stroke-dasharray:none;stroke-opacity:1"
     id="path4578" />
  <path
     d="M 70.594702,50.594311 119.40575,119.40537"
     style="fill:none;fill-rule:evenodd;stroke:#000000;stroke-width:1;stroke-linecap:butt;stroke-linejoin:miter;stroke-miterlimit:4;stroke-dasharray:none;stroke-opacity:1"
     id="path4584" />
  <rect
     width="99.060387"
     height="99.060387"
     x="19.970041"
     y="120.96962"
     style="opacity:1;fill:none;fill-opacity:1;stroke:#000000;stroke-width:1;stroke-miterlimit:4;stroke-dasharray:none;stroke-opacity:1"
     id="rect2766" />
  <path
     d="m 29.729817,219.99944 c 0,5.37354 -4.356115,9.72966 -9.729658,9.72966 -5.373543,0 -9.729659,-4.35612 -9.729659,-9.72966 0,-5.37355 4.356116,-9.72967 9.729659,-9.72967 5.373543,0 9.729658,4.35612 9.729658,9.72967 z"
     style="opacity:1;fill:#ffffff;fill-opacity:1;stroke:#000000;stroke-width:0.541;stroke-miterlimit:4;stroke-dasharray:none;stroke-opacity:1"
     id="path1871" />
  <path
     d="m 79.729877,49.999841 c 0,5.37354 -4.356115,9.72966 -9.729658,9.72966 -5.373543,0 -9.729659,-4.35612 -9.729659,-9.72966 0,-5.37355 4.356116,-9.72967 9.729659,-9.72967 5.373543,0 9.729658,4.35612 9.729658,9.72967 z"
     style="opacity:1;fill:#ffffff;fill-opacity:1;stroke:#000000;stroke-width:0.541;stroke-miterlimit:4;stroke-dasharray:none;stroke-opacity:1"
     id="path2758" />
  <path
     d="m 29.729867,119.99984 c 0,5.37354 -4.356115,9.72966 -9.729658,9.72966 -5.373543,0 -9.729659,-4.35612 -9.729659,-9.72966 0,-5.37355 4.356116,-9.72967 9.729659,-9.72967 5.373543,0 9.729658,4.35612 9.729658,9.72967 z"
     style="opacity:1;fill:#ffffff;fill-opacity:1;stroke:#000000;stroke-width:0.541;stroke-miterlimit:4;stroke-dasharray:none;stroke-opacity:1"
     id="path2760" />
  <path
     d="m 129.72987,119.99984 c 0,5.37354 -4.35612,9.72966 -9.72966,9.72966 -5.37354,0 -9.72966,-4.35612 -9.72966,-9.72966 0,-5.37355 4.35612,-9.72967 9.72966,-9.72967 5.37354,0 9.72966,4.35612 9.72966,9.72967 z"
     style="opacity:1;fill:#ffffff;fill-opacity:1;stroke:#000000;stroke-width:0.541;stroke-miterlimit:4;stroke-dasharray:none;stroke-opacity:1"
     id="path2762" />
  <path
     d="m 129.72987,219.99984 c 0,5.37354 -4.35612,9.72966 -9.72966,9.72966 -5.37354,0 -9.72966,-4.35612 -9.72966,-9.72966 0,-5.37355 4.35612,-9.72967 9.72966,-9.72967 5.37354,0 9.72966,4.35612 9.72966,9.72967 z"
     style="opacity:1;fill:#ffffff;fill-opacity:1;stroke:#000000;stroke-width:0.541;stroke-miterlimit:4;stroke-dasharray:none;stroke-opacity:1"
     id="path2764" />
  <text
     x="60.216496"
     y="56.958485"
     transform="scale(1.033689,0.96740896)"
     style="font-style:normal;font-weight:normal;font-size:14.4406px;font-family:'Bitstream Vera Sans';fill:#000000;fill-opacity:1;stroke:none;stroke-width:1px;stroke-linecap:butt;stroke-linejoin:miter;stroke-opacity:1"
     id="text4542"
     xml:space="preserve"><tspan
       x="60.216496"
       y="56.958485"
       id="tspan4544">陳</tspan></text>
  <text
     x="12.185288"
     y="128.73842"
     transform="scale(1.0292908,0.97154274)"
     style="font-style:normal;font-weight:normal;font-size:14.3792px;font-family:'Bitstream Vera Sans';fill:#000000;fill-opacity:1;stroke:none;stroke-width:1px;stroke-linecap:butt;stroke-linejoin:miter;stroke-opacity:1"
     id="text4562"
     xml:space="preserve"><tspan
       x="12.185288"
       y="128.73842"
       id="tspan4564">洪</tspan></text>
  <text
     x="117.51383"
     y="120.83161"
     transform="scale(0.9673689,1.0337318)"
     style="font-style:normal;font-weight:normal;font-size:13.0684px;font-family:'Bitstream Vera Sans';fill:#000000;fill-opacity:1;stroke:none;stroke-width:1px;stroke-linecap:butt;stroke-linejoin:miter;stroke-opacity:1"
     id="text4566"
     xml:space="preserve"><tspan
       x="117.51383"
       y="120.83161"
       id="tspan4568">方</tspan></text>
  <text
     x="13.514244"
     y="221.27046"
     transform="scale(0.98369515,1.0165751)"
     style="font-style:normal;font-weight:normal;font-size:13.7422px;font-family:'Bitstream Vera Sans';fill:#000000;fill-opacity:1;stroke:none;stroke-width:1px;stroke-linecap:butt;stroke-linejoin:miter;stroke-opacity:1"
     id="text4570"
     xml:space="preserve"><tspan
       x="13.514244"
       y="221.27046"
       id="tspan4572">梁</tspan></text>
  <text
     x="108.5536"
     y="233.01161"
     transform="scale(1.0353883,0.96582123)"
     style="font-style:normal;font-weight:normal;font-size:14.4643px;font-family:'Bitstream Vera Sans';fill:#000000;fill-opacity:1;stroke:none;stroke-width:1px;stroke-linecap:butt;stroke-linejoin:miter;stroke-opacity:1"
     id="text4574"
     xml:space="preserve"><tspan
       x="108.5536"
       y="233.01161"
       id="tspan4576">袁</tspan></text>
  <path
     d="m 204.72982,173.99983 c 0,5.37355 -4.35612,9.72967 -9.72966,9.72967 -5.37354,0 -9.72966,-4.35612 -9.72966,-9.72967 0,-5.37354 4.35612,-9.72966 9.72966,-9.72966 5.37354,0 9.72966,4.35612 9.72966,9.72966 z"
     style="opacity:1;fill:#ffffff;fill-opacity:1;stroke:#000000;stroke-width:0.541;stroke-miterlimit:4;stroke-dasharray:none;stroke-opacity:1"
     id="path4846" />
  <path
     d="m 204.72987,89.0004 c 0,5.37354 -4.35612,9.72967 -9.72966,9.72967 -5.37354,0 -9.72966,-4.35613 -9.72966,-9.72967 0,-5.37355 4.35612,-9.72967 9.72966,-9.72967 5.37354,0 9.72966,4.35612 9.72966,9.72967 z"
     style="opacity:1;fill:#ffffff;fill-opacity:1;stroke:#000000;stroke-width:0.541;stroke-miterlimit:4;stroke-dasharray:none;stroke-opacity:1"
     id="path4850" />
  <text
     x="181.41978"
     y="94.497963"
     transform="scale(1.0292908,0.97154274)"
     style="font-style:normal;font-weight:normal;font-size:8px;font-family:'Bitstream Vera Sans';fill:#000000;fill-opacity:1;stroke:none;stroke-width:1px;stroke-linecap:butt;stroke-linejoin:miter;stroke-opacity:1"
     id="text4860"
     xml:space="preserve"><tspan
       x="181.41978"
       y="94.497963"
       id="tspan4862"
       style="font-size:8px">皮鴨</tspan></text>
  <text
     x="190.16982"
     y="174.05338"
     transform="scale(0.98369515,1.0165751)"
     style="font-style:normal;font-weight:normal;font-size:8px;font-family:'Bitstream Vera Sans';fill:#000000;fill-opacity:1;stroke:none;stroke-width:1px;stroke-linecap:butt;stroke-linejoin:miter;stroke-opacity:1"
     id="text4868"
     xml:space="preserve"><tspan
       x="190.16982"
       y="174.05338"
       id="tspan4870"
       style="font-size:8px">芳章</tspan></text>
  <path
     d="M 280.8882,119.11186 C 329.11226,50.887792 329.11226,50.887792 329.11226,50.887792"
     style="fill:none;fill-rule:evenodd;stroke:#000000;stroke-width:1;stroke-linecap:butt;stroke-linejoin:miter;stroke-miterlimit:4;stroke-dasharray:none;stroke-opacity:1"
     id="path1927" />
  <path
     d="m 330.5947,50.594312 48.81105,68.811058"
     style="fill:none;fill-rule:evenodd;stroke:#000000;stroke-width:1;stroke-linecap:butt;stroke-linejoin:miter;stroke-miterlimit:4;stroke-dasharray:none;stroke-opacity:1"
     id="path1929" />
  <rect
     width="99.060387"
     height="99.060387"
     x="279.97003"
     y="120.96962"
     style="opacity:1;fill:none;fill-opacity:1;stroke:#000000;stroke-width:1;stroke-miterlimit:4;stroke-dasharray:none;stroke-opacity:1"
     id="rect1931" />
  <path
     d="m 289.72981,219.99944 c 0,5.37354 -4.35611,9.72966 -9.72965,9.72966 -5.37355,0 -9.72966,-4.35612 -9.72966,-9.72966 0,-5.37355 4.35611,-9.72967 9.72966,-9.72967 5.37354,0 9.72965,4.35612 9.72965,9.72967 z"
     style="opacity:1;fill:#ffffff;fill-opacity:1;stroke:#000000;stroke-width:0.541;stroke-miterlimit:4;stroke-dasharray:none;stroke-opacity:1"
     id="path1933" />
  <path
     d="m 339.72987,49.999842 c 0,5.37354 -4.35611,9.72966 -9.72965,9.72966 -5.37355,0 -9.72966,-4.35612 -9.72966,-9.72966 0,-5.37355 4.35611,-9.72967 9.72966,-9.72967 5.37354,0 9.72965,4.35612 9.72965,9.72967 z"
     style="opacity:1;fill:#ffffff;fill-opacity:1;stroke:#000000;stroke-width:0.541;stroke-miterlimit:4;stroke-dasharray:none;stroke-opacity:1"
     id="path1935" />
  <path
     d="m 289.72986,119.99984 c 0,5.37354 -4.35611,9.72966 -9.72965,9.72966 -5.37355,0 -9.72966,-4.35612 -9.72966,-9.72966 0,-5.37355 4.35611,-9.72967 9.72966,-9.72967 5.37354,0 9.72965,4.35612 9.72965,9.72967 z"
     style="opacity:1;fill:#ffffff;fill-opacity:1;stroke:#000000;stroke-width:0.541;stroke-miterlimit:4;stroke-dasharray:none;stroke-opacity:1"
     id="path1937" />
  <path
     d="m 389.72987,119.99984 c 0,5.37354 -4.35612,9.72966 -9.72966,9.72966 -5.37354,0 -9.72966,-4.35612 -9.72966,-9.72966 0,-5.37355 4.35612,-9.72967 9.72966,-9.72967 5.37354,0 9.72966,4.35612 9.72966,9.72967 z"
     style="opacity:1;fill:#ffffff;fill-opacity:1;stroke:#000000;stroke-width:0.541;stroke-miterlimit:4;stroke-dasharray:none;stroke-opacity:1"
     id="path1939" />
  <path
     d="m 389.72987,219.99984 c 0,5.37354 -4.35612,9.72966 -9.72966,9.72966 -5.37354,0 -9.72966,-4.35612 -9.72966,-9.72966 0,-5.37355 4.35612,-9.72967 9.72966,-9.72967 5.37354,0 9.72966,4.35612 9.72966,9.72967 z"
     style="opacity:1;fill:#ffffff;fill-opacity:1;stroke:#000000;stroke-width:0.541;stroke-miterlimit:4;stroke-dasharray:none;stroke-opacity:1"
     id="path1941" />
  <text
     x="310.70123"
     y="52.906937"
     transform="scale(1.033689,0.96740896)"
     style="font-style:normal;font-weight:normal;font-size:4px;font-family:'Bitstream Vera Sans';fill:#000000;fill-opacity:1;stroke:none;stroke-width:1px;stroke-linecap:butt;stroke-linejoin:miter;stroke-opacity:1"
     id="text1943"
     xml:space="preserve"><tspan
       x="310.70123"
       y="52.906937"
       id="tspan1945"
       style="font-size:4px">(陳,皮鴨)</tspan></text>
  <path
     d="M 330.8882,89.111862 C 379.11226,20.887791 379.11226,20.887791 379.11226,20.887791"
     style="fill:none;fill-rule:evenodd;stroke:#000000;stroke-width:1;stroke-linecap:butt;stroke-linejoin:miter;stroke-miterlimit:4;stroke-dasharray:none;stroke-opacity:1"
     id="path1963" />
  <path
     d="m 380.5947,20.594311 48.81105,68.811061"
     style="fill:none;fill-rule:evenodd;stroke:#000000;stroke-width:1;stroke-linecap:butt;stroke-linejoin:miter;stroke-miterlimit:4;stroke-dasharray:none;stroke-opacity:1"
     id="path1965" />
  <rect
     width="99.060387"
     height="99.060387"
     x="329.97006"
     y="90.96962"
     style="opacity:1;fill:none;fill-opacity:1;stroke:#000000;stroke-width:1;stroke-miterlimit:4;stroke-dasharray:none;stroke-opacity:1"
     id="rect1967" />
  <path
     d="m 339.72981,189.99944 c 0,5.37354 -4.35611,9.72966 -9.72965,9.72966 -5.37355,0 -9.72966,-4.35612 -9.72966,-9.72966 0,-5.37355 4.35611,-9.72967 9.72966,-9.72967 5.37354,0 9.72965,4.35612 9.72965,9.72967 z"
     style="opacity:1;fill:#ffffff;fill-opacity:1;stroke:#000000;stroke-width:0.541;stroke-miterlimit:4;stroke-dasharray:none;stroke-opacity:1"
     id="path1969" />
  <path
     d="m 389.72987,19.999841 c 0,5.37354 -4.35611,9.72966 -9.72965,9.72966 -5.37355,0 -9.72966,-4.35612 -9.72966,-9.72966 0,-5.37355 4.35611,-9.72967 9.72966,-9.72967 5.37354,0 9.72965,4.35612 9.72965,9.72967 z"
     style="opacity:1;fill:#ffffff;fill-opacity:1;stroke:#000000;stroke-width:0.541;stroke-miterlimit:4;stroke-dasharray:none;stroke-opacity:1"
     id="path1971" />
  <path
     d="m 339.72986,89.999842 c 0,5.37354 -4.35611,9.72966 -9.72965,9.72966 -5.37355,0 -9.72966,-4.35612 -9.72966,-9.72966 0,-5.37355 4.35611,-9.72967 9.72966,-9.72967 5.37354,0 9.72965,4.35612 9.72965,9.72967 z"
     style="opacity:1;fill:#ffffff;fill-opacity:1;stroke:#000000;stroke-width:0.541;stroke-miterlimit:4;stroke-dasharray:none;stroke-opacity:1"
     id="path1973" />
  <path
     d="m 439.72987,89.999842 c 0,5.37354 -4.35612,9.72966 -9.72966,9.72966 -5.37354,0 -9.72966,-4.35612 -9.72966,-9.72966 0,-5.37355 4.35612,-9.72967 9.72966,-9.72967 5.37354,0 9.72966,4.35612 9.72966,9.72967 z"
     style="opacity:1;fill:#ffffff;fill-opacity:1;stroke:#000000;stroke-width:0.541;stroke-miterlimit:4;stroke-dasharray:none;stroke-opacity:1"
     id="path1975" />
  <path
     d="m 439.72987,189.99984 c 0,5.37354 -4.35612,9.72966 -9.72966,9.72966 -5.37354,0 -9.72966,-4.35612 -9.72966,-9.72966 0,-5.37355 4.35612,-9.72967 9.72966,-9.72967 5.37354,0 9.72966,4.35612 9.72966,9.72967 z"
     style="opacity:1;fill:#ffffff;fill-opacity:1;stroke:#000000;stroke-width:0.541;stroke-miterlimit:4;stroke-dasharray:none;stroke-opacity:1"
     id="path1977" />
  <text
     x="272.0188"
     y="130.83244"
     transform="scale(0.79577912,1.2566301)"
     style="font-style:normal;font-weight:normal;font-size:79.7597px;font-family:'Bitstream Vera Sans';fill:#000000;fill-opacity:1;stroke:none;stroke-width:1px;stroke-linecap:butt;stroke-linejoin:miter;stroke-opacity:1"
     id="text2932"
     xml:space="preserve"><tspan
       x="272.0188"
       y="130.83244"
       id="tspan2934">=</tspan></text>
  <text
     x="134.46101"
     y="153.90826"
     style="font-style:normal;font-weight:normal;font-size:70.4587px;font-family:'Bitstream Vera Sans';fill:#000000;fill-opacity:1;stroke:none;stroke-width:1px;stroke-linecap:butt;stroke-linejoin:miter;stroke-opacity:1"
     id="text2936"
     xml:space="preserve"><tspan
       x="134.46101"
       y="153.90826"
       id="tspan2938">×</tspan></text>
  <text
     xml:space="preserve"
     style="font-style:normal;font-weight:normal;font-size:24px;line-height:1.25;font-family:sans-serif;fill:#000000;fill-opacity:1;stroke:none"
     x="5.7766366"
     y="259.86136"
     id="text338"><tspan
       sodipodi:role="line"
       id="tspan336"
       x="5.7766366"
       y="259.86136"
       style="font-size:24px"><tspan
         style="font-size:16px"
         id="tspan554">{陳,洪,梁,袁,方} × {皮鴨,芳章}</tspan><tspan
         id="tspan562"
         style="font-size:6px"> = {(陳,皮鴨),(洪,皮鴨),...,(方,皮鴨),(陳,芳章),(洪,芳章),...,(方,芳章)}</tspan></tspan></text>
  <text
     x="262.33075"
     y="125.25735"
     transform="scale(1.033689,0.96740896)"
     style="font-style:normal;font-weight:normal;font-size:4px;font-family:'Bitstream Vera Sans';fill:#000000;fill-opacity:1;stroke:none;stroke-width:1px;stroke-linecap:butt;stroke-linejoin:miter;stroke-opacity:1"
     id="text704"
     xml:space="preserve"><tspan
       x="262.33075"
       y="125.25735"
       id="tspan702"
       style="font-size:4px">(洪,皮鴨)</tspan></text>
  <text
     x="262.33072"
     y="228.62584"
     transform="scale(1.033689,0.96740896)"
     style="font-style:normal;font-weight:normal;font-size:4px;font-family:'Bitstream Vera Sans';fill:#000000;fill-opacity:1;stroke:none;stroke-width:1px;stroke-linecap:butt;stroke-linejoin:miter;stroke-opacity:1"
     id="text708"
     xml:space="preserve"><tspan
       x="262.33072"
       y="228.62584"
       id="tspan706"
       style="font-size:4px">(梁,皮鴨)</tspan></text>
  <text
     x="359.07166"
     y="125.25735"
     transform="scale(1.033689,0.96740896)"
     style="font-style:normal;font-weight:normal;font-size:4px;font-family:'Bitstream Vera Sans';fill:#000000;fill-opacity:1;stroke:none;stroke-width:1px;stroke-linecap:butt;stroke-linejoin:miter;stroke-opacity:1"
     id="text712"
     xml:space="preserve"><tspan
       x="359.07166"
       y="125.25735"
       id="tspan710"
       style="font-size:4px">(方,皮鴨)</tspan></text>
  <text
     x="359.07166"
     y="228.63406"
     transform="scale(1.033689,0.96740896)"
     style="font-style:normal;font-weight:normal;font-size:4px;font-family:'Bitstream Vera Sans';fill:#000000;fill-opacity:1;stroke:none;stroke-width:1px;stroke-linecap:butt;stroke-linejoin:miter;stroke-opacity:1"
     id="text716"
     xml:space="preserve"><tspan
       x="359.07166"
       y="228.63406"
       id="tspan714"
       style="font-size:4px">(袁,皮鴨)</tspan></text>
  <text
     x="359.07166"
     y="21.896267"
     transform="scale(1.033689,0.96740896)"
     style="font-style:normal;font-weight:normal;font-size:4px;font-family:'Bitstream Vera Sans';fill:#000000;fill-opacity:1;stroke:none;stroke-width:1px;stroke-linecap:butt;stroke-linejoin:miter;stroke-opacity:1"
     id="text740"
     xml:space="preserve"><tspan
       x="359.07166"
       y="21.896267"
       id="tspan738"
       style="font-size:4px">(陳,芳章)</tspan></text>
  <text
     x="310.7012"
     y="94.254501"
     transform="scale(1.033689,0.96740896)"
     style="font-style:normal;font-weight:normal;font-size:4px;font-family:'Bitstream Vera Sans';fill:#000000;fill-opacity:1;stroke:none;stroke-width:1px;stroke-linecap:butt;stroke-linejoin:miter;stroke-opacity:1"
     id="text744"
     xml:space="preserve"><tspan
       x="310.7012"
       y="94.254501"
       id="tspan742"
       style="font-size:4px">(洪,芳章)</tspan></text>
  <text
     x="310.70117"
     y="197.62299"
     transform="scale(1.033689,0.96740896)"
     style="font-style:normal;font-weight:normal;font-size:4px;font-family:'Bitstream Vera Sans';fill:#000000;fill-opacity:1;stroke:none;stroke-width:1px;stroke-linecap:butt;stroke-linejoin:miter;stroke-opacity:1"
     id="text748"
     xml:space="preserve"><tspan
       x="310.70117"
       y="197.62299"
       id="tspan746"
       style="font-size:4px">(梁,芳章)</tspan></text>
  <text
     x="407.44211"
     y="94.254501"
     transform="scale(1.033689,0.96740896)"
     style="font-style:normal;font-weight:normal;font-size:4px;font-family:'Bitstream Vera Sans';fill:#000000;fill-opacity:1;stroke:none;stroke-width:1px;stroke-linecap:butt;stroke-linejoin:miter;stroke-opacity:1"
     id="text752"
     xml:space="preserve"><tspan
       x="407.44211"
       y="94.254501"
       id="tspan750"
       style="font-size:4px">(方,芳章)</tspan></text>
  <text
     x="407.44211"
     y="197.6234"
     transform="scale(1.033689,0.96740896)"
     style="font-style:normal;font-weight:normal;font-size:4px;font-family:'Bitstream Vera Sans';fill:#000000;fill-opacity:1;stroke:none;stroke-width:1px;stroke-linecap:butt;stroke-linejoin:miter;stroke-opacity:1"
     id="text756"
     xml:space="preserve"><tspan
       x="407.44211"
       y="197.6234"
       id="tspan754"
       style="font-size:4px">(袁,芳章)</tspan></text>
</svg>
