<?xml version='1.0' encoding='UTF-8'?>
<!-- This file was generated by dvisvgm 2.11.1 -->
<svg version='1.1' xmlns='http://www.w3.org/2000/svg' xmlns:xlink='http://www.w3.org/1999/xlink' width='304.39pt' height='164.29pt' viewBox='-189.96 -189.96 304.39 164.29'>
<defs>
<path id='g0-71' d='m5.88-4.81c0-.03-.02-.09-.09-.09c-.05 0-.06 .01-.13 .08l-.51 .54c-.06-.08-.45-.62-1.31-.62c-1.69 0-3.35 1.5-3.35 3.08c0 1.08 .82 1.97 2.16 1.97c.61 0 1.26-.16 1.62-.55c.07 .15 .26 .4 .34 .4c.06 0 .08-.03 .11-.17l.13-.54c.03-.13 .13-.54 .15-.63c.08-.31 .09-.32 .5-.33c.05 0 .15 0 .15-.15c0-.07-.05-.1-.1-.1c-.23 0-.52 .03-.77 .03c-.17 0-.4 0-.58-.01s-.38-.02-.55-.02c-.05 0-.15 0-.15 .15c0 .1 .08 .1 .25 .1c.13 0 .27 0 .4 .01c.22 .02 .23 .05 .23 .13c0 .03 0 .04-.05 .22c-.05 .2-.13 .51-.15 .58c-.2 .43-.85 .61-1.39 .61c-.7 0-1.61-.33-1.61-1.51c0-.75 .35-1.68 .86-2.2c.72-.71 1.46-.82 1.86-.82c.81 0 1.28 .59 1.28 1.37c0 .2-.02 .24-.02 .29c0 .09 .09 .09 .13 .09c.11 0 .11-.02 .15-.15l.43-1.75z'/>
</defs>
<g id='page1' transform='matrix(2.5 0 0 2.5 0 0)'>
<path d='m-15.11-15.11l8.5-28.34h-56.69z' stroke='#000' fill='none' stroke-width='.4' stroke-miterlimit='10'/>
<path d='m-54.79-71.8l-17.01 56.69h113.39z' stroke='#000' fill='none' stroke-width='.4' stroke-miterlimit='10'/>
<path d='m-27.34-34.01c0-.55-.45-1-1-1s-1 .45-1 1s.45 1 1 1s1-.45 1-1z'/>
<g transform='matrix(1 0 0 1 -18.32 -11.29)'>
<use x='-15.11' y='-15.11' xlink:href='#g0-71'/>
</g>
<path d='m-54.79-71.8l37.63 53.75' stroke='#000' fill='none' stroke-width='.4' stroke-miterlimit='10' stroke-dasharray='2.99 2.99'/>
<path d='m-15.11-15.11c-.45-.98-.95-2.74-1.06-4.12l-2.45 1.71c1.26 .58 2.74 1.65 3.51 2.41'/>
<path d='m-71.8-15.11l61.91-26.91' stroke='#000' fill='none' stroke-width='.4' stroke-miterlimit='10' stroke-dasharray='2.99 2.99'/>
<path d='m-6.61-43.45c-1.05 .24-2.88 .38-4.25 .22l1.19 2.74c.82-1.12 2.16-2.35 3.06-2.96'/>
<path d='m41.59-15.11l-101.42-27.41' stroke='#000' fill='none' stroke-width='.4' stroke-miterlimit='10' stroke-dasharray='2.99 2.99'/>
<path d='m-63.3-43.45c.97 .47 2.48 1.5 3.46 2.48l.78-2.89c-1.34 .36-3.16 .49-4.23 .41'/>
</g>
</svg>