<?xml version='1.0' encoding='UTF-8'?>
<!-- This file was generated by dvisvgm 2.11.1 -->
<svg version='1.1' xmlns='http://www.w3.org/2000/svg' xmlns:xlink='http://www.w3.org/1999/xlink' width='294.015pt' height='237.589pt' viewBox='0 -237.589 294.015 237.589'>
<g id='page1'>
<g transform='matrix(1 0 0 -1 0 0)'>
<path d='M5.223 30.7383H283.023M5.223 59.082H283.023M5.223 87.4297H283.023M5.223 115.777343H283.023M5.223 144.125H283.023M5.223 172.4687H283.023M5.223 200.8164H283.023M30.734 5.227V226.328M59.082 5.227V226.328M87.4297 5.227V226.328M115.7773 5.227V226.328M144.121093 5.227V226.328M172.4687 5.227V226.328M200.8164 5.227V226.328M229.1641 5.227V226.328M257.512 5.227V226.328' stroke='#d9d9d9' fill='none' stroke-width='.19925' stroke-miterlimit='10'/>
<path d='M87.4297 115.777343V30.7383L92.1523 35.4609L96.8789 40.1836L101.6016 44.9102L106.3242 49.6328L111.0508 54.3594L115.7734 59.082L120.5 63.8047L125.2227 68.5312L129.9453 73.2539L134.67187 77.9766L139.39453 82.7031L144.121093 87.4258L148.84375 92.1523L153.56641 96.875L158.293 101.5977L163.0156 106.32422L167.7422 111.04687L172.4648 115.773437L177.1875 120.49609L181.9141 125.21875L186.6367 129.9453L191.3633 134.668L196.0859 139.3945L200.8086 144.1172L200.8164 115.777343Z' fill='#808080'/>
<path d='M2.391 115.777343H285.148' stroke='#000' fill='none' stroke-width='.79701' stroke-miterlimit='10'/>
<path d='M283.59409 117.84766C283.7269 117.07031 285.148779 115.90625 285.539404 115.777343C285.148779 115.648437 283.7269 114.48047 283.59409 113.70312' stroke='#000' fill='none' stroke-width='.6376' stroke-miterlimit='10' stroke-linecap='round' stroke-linejoin='round'/>
<path d='M286.33518 110.77647C286.39487 111.03522 286.62393 111.95178 287.32112 111.95178C287.37112 111.95178 287.61018 111.95178 287.81925 111.82209C287.5405 111.77241 287.34112 111.52334 287.34112 111.28428C287.34112 111.12491 287.45081 110.93584 287.71956 110.93584C287.93893 110.93584 288.25768 111.11491 288.25768 111.51334C288.25768 112.03147 287.66987 112.17084 287.33112 112.17084C286.75331 112.17084 286.40487 111.64303 286.28518 111.41397C286.03612 112.07116 285.49831 112.17084 285.20956 112.17084C284.17331 112.17084 283.605809 110.88584 283.605809 110.63678C283.605809 110.53741 283.705184 110.53741 283.725184 110.53741C283.804871 110.53741 283.834871 110.55709 283.854559 110.64678C284.19331 111.70272 284.85081 111.95178 285.18956 111.95178C285.37862 111.95178 285.72737 111.86209 285.72737 111.28428C285.72737 110.97553 285.558 110.30803 285.18956 108.91366C285.03018 108.295843 284.68143 107.877718 284.24331 107.877718C284.18331 107.877718 283.954246 107.877718 283.745184 108.007093C283.994246 108.056781 284.21331 108.266156 284.21331 108.544906C284.21331 108.81397 283.994246 108.89366 283.844871 108.89366C283.545809 108.89366 283.296746 108.634593 283.296746 108.315843C283.296746 107.857718 283.794871 107.658343 284.23331 107.658343C284.89081 107.658343 285.24925 108.355843 285.27925 108.415531C285.39862 108.047093 285.75737 107.658343 286.35487 107.658343C287.38112 107.658343 287.94862 108.94334 287.94862 109.19241C287.94862 109.29209 287.85925 109.29209 287.82925 109.29209C287.73956 109.29209 287.71956 109.25241 287.69987 109.18241C287.37112 108.116781 286.69362 107.877718 286.37487 107.877718C285.98643 107.877718 285.82706 108.196468 285.82706 108.534906C285.82706 108.754281 285.88675 108.97334 285.99643 109.41178L286.33518 110.77647Z'/>
<path d='M30.734 114.78125V116.773437' stroke='#000' fill='none' stroke-width='.79701' stroke-miterlimit='10'/>
<path d='M30.93636 108.92491C31.10573 108.92491 31.28511 108.92491 31.28511 109.12429C31.28511 109.32335 31.10573 109.32335 30.93636 109.32335H25.54729C25.37792 109.32335 25.198857 109.32335 25.198857 109.12429C25.198857 108.92491 25.37792 108.92491 25.54729 108.92491H30.93636Z'/>
<path d='M35.04975 108.27773V107.410851C35.04975 107.052414 35.02975 106.942726 34.29256 106.942726H34.0835V106.633976C34.49163 106.663976 35.00975 106.663976 35.42819 106.663976S36.37444 106.663976 36.78288 106.633976V106.942726H36.57381C35.83663 106.942726 35.81663 107.052414 35.81663 107.410851V108.27773H36.81288V108.58648H35.81663V113.11866C35.81663 113.31804 35.81663 113.37773 35.65725 113.37773C35.56756 113.37773 35.53756 113.37773 35.45788 113.25804L32.400064 108.58648V108.27773H35.04975ZM35.10944 108.58648H32.678814L35.10944 112.30179V108.58648Z'/>
<path d='M59.082 114.78125V116.773437' stroke='#000' fill='none' stroke-width='.79701' stroke-miterlimit='10'/>
<path d='M59.28337 108.92491C59.45275 108.92491 59.63212 108.92491 59.63212 109.12429C59.63212 109.32335 59.45275 109.32335 59.28337 109.32335H53.89431C53.72493 109.32335 53.54587 109.32335 53.54587 109.12429C53.54587 108.92491 53.72493 108.92491 53.89431 108.92491H59.28337Z'/>
<path d='M63.35676 110.14023C64.17364 110.40929 64.75145 111.10648 64.75145 111.89335C64.75145 112.71023 63.87489 113.26804 62.91833 113.26804C61.91239 113.26804 61.155202 112.67054 61.155202 111.91335C61.155202 111.5846 61.374577 111.39554 61.66333 111.39554C61.97208 111.39554 62.17145 111.6146 62.17145 111.90335C62.17145 112.40148 61.70333 112.40148 61.55364 112.40148C61.8627 112.8896 62.51989 113.01898 62.87864 113.01898C63.28708 113.01898 63.83489 112.79991 63.83489 111.90335C63.83489 111.78398 63.81489 111.20616 63.55614 110.76773C63.25708 110.2896 62.91833 110.25991 62.66958 110.24991C62.58989 110.23991 62.35083 110.21991 62.28083 110.21991C62.20114 110.20991 62.13145 110.20023 62.13145 110.10054C62.13145 109.99085 62.20114 109.99085 62.37051 109.99085H62.80895C63.62583 109.99085 63.99426 109.31366 63.99426 108.33741C63.99426 106.982726 63.30708 106.693664 62.86864 106.693664C62.4402 106.693664 61.69333 106.863039 61.344577 107.450851C61.69333 107.400851 62.00208 107.620226 62.00208 107.99866C62.00208 108.35741 61.73302 108.55648 61.444265 108.55648C61.205202 108.55648 60.886452 108.4171 60.886452 107.97866C60.886452 107.072414 61.8127 106.414914 62.89864 106.414914C64.11395 106.414914 65.0202 107.321164 65.0202 108.33741C65.0202 109.15429 64.3927 109.93116 63.35676 110.14023Z'/>
<path d='M87.4297 114.78125V116.773437' stroke='#000' fill='none' stroke-width='.79701' stroke-miterlimit='10'/>
<path d='M87.6294 108.92491C87.79878 108.92491 87.97815 108.92491 87.97815 109.12429C87.97815 109.32335 87.79878 109.32335 87.6294 109.32335H82.24034C82.07097 109.32335 81.891903 109.32335 81.891903 109.12429C81.891903 108.92491 82.07097 108.92491 82.24034 108.92491H87.6294Z'/>
<path d='M90.07897 107.400851L91.13491 108.4271C92.68897 109.80179 93.28647 110.3396 93.28647 111.33554C93.28647 112.47116 92.38991 113.26804 91.17491 113.26804C90.04928 113.26804 89.312095 112.35179 89.312095 111.46523C89.312095 110.90741 89.81022 110.90741 89.83991 110.90741C90.00928 110.90741 90.35803 111.02679 90.35803 111.43523C90.35803 111.69429 90.17866 111.95335 89.82991 111.95335C89.75022 111.95335 89.730532 111.95335 89.700532 111.94335C89.92959 112.59085 90.46741 112.95929 91.04522 112.95929C91.95178 112.95929 92.38022 112.15241 92.38022 111.33554C92.38022 110.53866 91.88209 109.75179 91.33428 109.13429L89.42147 107.002414C89.312095 106.893039 89.312095 106.873039 89.312095 106.633976H93.00772L93.28647 108.3671H93.03741C92.98772 108.06835 92.91803 107.630226 92.81834 107.480539C92.74866 107.400851 92.09116 107.400851 91.87209 107.400851H90.07897Z'/>
<path d='M115.7773 114.78125V116.773437' stroke='#000' fill='none' stroke-width='.79701' stroke-miterlimit='10'/>
<path d='M115.97634 108.92491C116.14571 108.92491 116.32509 108.92491 116.32509 109.12429C116.32509 109.32335 116.14571 109.32335 115.97634 109.32335H110.58728C110.4179 109.32335 110.238838 109.32335 110.238838 109.12429C110.238838 108.92491 110.4179 108.92491 110.58728 108.92491H115.97634Z'/>
<path d='M120.08875 113.00929C120.08875 113.24835 120.08875 113.26804 119.85938 113.26804C119.24188 112.63054 118.36532 112.63054 118.046566 112.63054V112.32179C118.24563 112.32179 118.83344 112.32179 119.35157 112.58085V107.420851C119.35157 107.062414 119.32157 106.942726 118.425 106.942726H118.106253V106.633976C118.455 106.663976 119.32157 106.663976 119.72 106.663976C120.11844 106.663976 120.985 106.663976 121.33375 106.633976V106.942726H121.015C120.11844 106.942726 120.08875 107.052414 120.08875 107.420851V113.00929Z'/>
<path d='M144.121093 114.78125V116.773437' stroke='#000' fill='none' stroke-width='.79701' stroke-miterlimit='10'/>
<path d='M146.21518 109.82148C146.21518 110.61835 146.1655 111.41523 145.81675 112.15241C145.35862 113.10866 144.54175 113.26804 144.12331 113.26804C143.5255 113.26804 142.79831 113.00929 142.390184 112.08273C142.071434 111.39554 142.021434 110.61835 142.021434 109.82148C142.021434 109.0746 142.061434 108.17804 142.469871 107.420851C142.898 106.613976 143.62518 106.414914 144.11331 106.414914C144.65112 106.414914 145.40831 106.623976 145.84675 107.570226C146.1655 108.25773 146.21518 109.0346 146.21518 109.82148ZM144.11331 106.633976C143.72487 106.633976 143.13706 106.883039 142.95768 107.83929C142.84831 108.4371 142.84831 109.35335 142.84831 109.94116C142.84831 110.57866 142.84831 111.23616 142.928 111.77398C143.11737 112.95929 143.86425 113.04898 144.11331 113.04898C144.44206 113.04898 145.09956 112.8696 145.28862 111.88366C145.38831 111.32585 145.38831 110.56866 145.38831 109.94116C145.38831 109.19398 145.38831 108.51679 145.27893 107.87898C145.12925 106.932726 144.56175 106.633976 144.11331 106.633976Z'/>
<path d='M172.4687 114.78125V116.773437' stroke='#000' fill='none' stroke-width='.79701' stroke-miterlimit='10'/>
<path d='M172.90778 113.00929C172.90778 113.24835 172.90778 113.26804 172.6784 113.26804C172.0609 112.63054 171.18434 112.63054 170.865592 112.63054V112.32179C171.06465 112.32179 171.65247 112.32179 172.17059 112.58085V107.420851C172.17059 107.062414 172.14059 106.942726 171.24403 106.942726H170.925279V106.633976C171.27403 106.663976 172.14059 106.663976 172.53903 106.663976S173.80403 106.663976 174.15278 106.633976V106.942726H173.83403C172.93747 106.942726 172.90778 107.052414 172.90778 107.420851V113.00929Z'/>
<path d='M200.8164 114.78125V116.773437' stroke='#000' fill='none' stroke-width='.79701' stroke-miterlimit='10'/>
<path d='M199.58998 107.400851L200.64592 108.4271C202.19998 109.80179 202.79748 110.3396 202.79748 111.33554C202.79748 112.47116 201.90092 113.26804 200.68592 113.26804C199.5603 113.26804 198.823109 112.35179 198.823109 111.46523C198.823109 110.90741 199.321234 110.90741 199.35092 110.90741C199.5203 110.90741 199.86905 111.02679 199.86905 111.43523C199.86905 111.69429 199.68967 111.95335 199.34092 111.95335C199.261234 111.95335 199.241547 111.95335 199.211547 111.94335C199.44061 112.59085 199.97842 112.95929 200.55623 112.95929C201.4628 112.95929 201.89123 112.15241 201.89123 111.33554C201.89123 110.53866 201.39311 109.75179 200.8453 109.13429L198.932484 107.002414C198.823109 106.893039 198.823109 106.873039 198.823109 106.633976H202.51873L202.79748 108.3671H202.54842C202.49873 108.06835 202.42905 107.630226 202.32936 107.480539C202.25967 107.400851 201.60217 107.400851 201.38311 107.400851H199.58998Z'/>
<path d='M229.1641 114.78125V116.773437' stroke='#000' fill='none' stroke-width='.79701' stroke-miterlimit='10'/>
<path d='M229.56075 110.14023C230.37762 110.40929 230.95543 111.10648 230.95543 111.89335C230.95543 112.71023 230.07887 113.26804 229.12231 113.26804C228.11637 113.26804 227.359185 112.67054 227.359185 111.91335C227.359185 111.5846 227.57856 111.39554 227.86731 111.39554C228.17606 111.39554 228.37544 111.6146 228.37544 111.90335C228.37544 112.40148 227.90731 112.40148 227.75762 112.40148C228.06669 112.8896 228.72387 113.01898 229.08262 113.01898C229.49106 113.01898 230.03887 112.79991 230.03887 111.90335C230.03887 111.78398 230.01887 111.20616 229.76012 110.76773C229.46106 110.2896 229.12231 110.25991 228.87356 110.24991C228.79387 110.23991 228.55481 110.21991 228.48481 110.21991C228.40512 110.20991 228.33544 110.20023 228.33544 110.10054C228.33544 109.99085 228.40512 109.99085 228.5745 109.99085H229.01293C229.82981 109.99085 230.19825 109.31366 230.19825 108.33741C230.19825 106.982726 229.51106 106.693664 229.07262 106.693664C228.64419 106.693664 227.89731 106.863039 227.54856 107.450851C227.89731 107.400851 228.20606 107.620226 228.20606 107.99866C228.20606 108.35741 227.937 108.55648 227.648248 108.55648C227.409185 108.55648 227.090435 108.4171 227.090435 107.97866C227.090435 107.072414 228.01669 106.414914 229.10262 106.414914C230.31794 106.414914 231.22419 107.321164 231.22419 108.33741C231.22419 109.15429 230.59669 109.93116 229.56075 110.14023Z'/>
<path d='M257.512 114.78125V116.773437' stroke='#000' fill='none' stroke-width='.79701' stroke-miterlimit='10'/>
<path d='M257.94678 108.27773V107.410851C257.94678 107.052414 257.92678 106.942726 257.18959 106.942726H256.98053V106.633976C257.38866 106.663976 257.90678 106.663976 258.32522 106.663976S259.27147 106.663976 259.67991 106.633976V106.942726H259.47084C258.73366 106.942726 258.71366 107.052414 258.71366 107.410851V108.27773H259.70991V108.58648H258.71366V113.11866C258.71366 113.31804 258.71366 113.37773 258.55428 113.37773C258.46459 113.37773 258.43459 113.37773 258.35491 113.25804L255.297093 108.58648V108.27773H257.94678ZM258.00647 108.58648H255.575843L258.00647 112.30179V108.58648Z'/>
<path d='M144.121093 2.391V228.457' stroke='#000' fill='none' stroke-width='.79701' stroke-miterlimit='10'/>
<path d='M142.05078 226.90247C142.82812 227.03137 143.992186 228.457153 144.121093 228.843871C144.253905 228.457153 145.41797 227.03137 146.19531 226.90247' stroke='#000' fill='none' stroke-width='.6376' stroke-miterlimit='10' stroke-linecap='round' stroke-linejoin='round'/>
<path d='M140.00321 231.78234C140.0429 231.92171 140.0429 231.94171 140.0429 232.0114C140.0429 232.19078 139.90353 232.28046 139.75415 232.28046C139.65446 232.28046 139.49509 232.22046 139.4054 232.07109C139.3854 232.0214 139.30571 231.71265 139.26603 231.53328C139.19634 231.27421 139.12665 231.00515 139.06665 230.7364L138.61853 228.943276C138.57853 228.793901 138.1504 228.096713 137.4929 228.096713C136.98478 228.096713 136.8754 228.534838 136.8754 228.903588C136.8754 229.36171 137.04478 229.97921 137.38321 230.85578C137.54259 231.26421 137.58259 231.3739 137.58259 231.57296C137.58259 232.0214 137.26384 232.38984 136.76571 232.38984C135.819463 232.38984 135.450713 230.94546 135.450713 230.85578C135.450713 230.7564 135.550401 230.7564 135.570401 230.7564C135.670088 230.7564 135.680088 230.77609 135.729776 230.93546C135.998838 231.87203 136.39728 232.17078 136.73571 232.17078C136.8154 232.17078 136.98478 232.17078 136.98478 231.85203C136.98478 231.60296 136.8854 231.3439 136.8154 231.15484C136.41696 230.0989 136.2379 229.53109 136.2379 229.06296C136.2379 228.176401 136.8654 227.877338 137.4529 227.877338C137.84165 227.877338 138.18009 228.046713 138.45915 228.325776C138.32978 227.807651 138.21009 227.319526 137.81165 226.79171C137.55259 226.45296 137.17415 226.16421 136.71603 226.16421C136.57634 226.16421 136.128213 226.1939 135.958838 226.58234C136.118213 226.58234 136.24759 226.58234 136.38728 226.70203C136.48665 226.79171 136.58634 226.92109 136.58634 227.110463C136.58634 227.419213 136.31759 227.459213 136.2179 227.459213C135.988838 227.459213 135.660088 227.299838 135.660088 226.81171C135.660088 226.31359 136.098213 225.94484 136.71603 225.94484C137.74196 225.94484 138.7679 226.8514 139.04696 227.977026L140.00321 231.78234Z'/>
<path d='M143.124999 30.7383H145.121093' stroke='#000' fill='none' stroke-width='.79701' stroke-miterlimit='10'/>
<path d='M135.23441 30.23391C135.40379 30.23391 135.58316 30.23391 135.58316 30.43328C135.58316 30.63234 135.40379 30.63234 135.23441 30.63234H129.84535C129.67598 30.63234 129.496913 30.63234 129.496913 30.43328C129.496913 30.23391 129.67598 30.23391 129.84535 30.23391H135.23441Z'/>
<path d='M139.30773 31.44922C140.1246 31.71828 140.70242 32.41547 140.70242 33.20234C140.70242 34.01922 139.82585 34.57703 138.86929 34.57703C137.86335 34.57703 137.106167 33.97953 137.106167 33.22234C137.106167 32.89359 137.325542 32.70453 137.61429 32.70453C137.92304 32.70453 138.12242 32.92359 138.12242 33.21234C138.12242 33.71047 137.65429 33.71047 137.5046 33.71047C137.81367 34.19859 138.47085 34.32797 138.8296 34.32797C139.23804 34.32797 139.78585 34.10891 139.78585 33.21234C139.78585 33.09297 139.76585 32.51516 139.5071 32.07672C139.20804 31.59859 138.86929 31.56891 138.62054 31.55891C138.54085 31.54891 138.30179 31.52891 138.23179 31.52891C138.1521 31.51891 138.08242 31.50922 138.08242 31.40953C138.08242 31.29984 138.1521 31.29984 138.32148 31.29984H138.75992C139.57679 31.29984 139.94523 30.62266 139.94523 29.64641C139.94523 28.291718 139.25804 28.002656 138.8196 28.002656C138.39117 28.002656 137.64429 28.172031 137.295542 28.759843C137.64429 28.709843 137.95304 28.929218 137.95304 29.30766C137.95304 29.66641 137.68398 29.86547 137.39523 29.86547C137.156167 29.86547 136.837417 29.72609 136.837417 29.28766C136.837417 28.381406 137.76367 27.723906 138.8496 27.723906C140.06492 27.723906 140.97117 28.630156 140.97117 29.64641C140.97117 30.46328 140.34367 31.24016 139.30773 31.44922Z'/>
<path d='M143.124999 59.082H145.121093' stroke='#000' fill='none' stroke-width='.79701' stroke-miterlimit='10'/>
<path d='M135.23441 58.57994C135.40379 58.57994 135.58316 58.57994 135.58316 58.77931C135.58316 58.97838 135.40379 58.97838 135.23441 58.97838H129.84535C129.67598 58.97838 129.496913 58.97838 129.496913 58.77931C129.496913 58.57994 129.67598 58.57994 129.84535 58.57994H135.23441Z'/>
<path d='M137.68398 57.055876L138.73992 58.08213C140.29398 59.45681 140.89148 59.99463 140.89148 60.99056C140.89148 62.12619 139.99492 62.92306 138.77992 62.92306C137.65429 62.92306 136.917105 62.00681 136.917105 61.12025C136.917105 60.56244 137.41523 60.56244 137.44492 60.56244C137.61429 60.56244 137.96304 60.68181 137.96304 61.09025C137.96304 61.34931 137.78367 61.60838 137.43492 61.60838C137.35523 61.60838 137.335542 61.60838 137.305542 61.59838C137.5346 62.24588 138.07242 62.61431 138.65023 62.61431C139.55679 62.61431 139.98523 61.80744 139.98523 60.99056C139.98523 60.19369 139.4871 59.40681 138.93929 58.78931L137.02648 56.657439C136.917105 56.548064 136.917105 56.528064 136.917105 56.289001H140.61273L140.89148 58.02213H140.64242C140.59273 57.72338 140.52304 57.285251 140.42335 57.135564C140.35367 57.055876 139.69617 57.055876 139.4771 57.055876H137.68398Z'/>
<path d='M143.124999 87.4297H145.121093' stroke='#000' fill='none' stroke-width='.79701' stroke-miterlimit='10'/>
<path d='M135.23441 86.92597C135.40379 86.92597 135.58316 86.92597 135.58316 87.12535C135.58316 87.32441 135.40379 87.32441 135.23441 87.32441H129.84535C129.67598 87.32441 129.496913 87.32441 129.496913 87.12535C129.496913 86.92597 129.67598 86.92597 129.84535 86.92597H135.23441Z'/>
<path d='M139.34773 91.01035C139.34773 91.24941 139.34773 91.2691 139.11835 91.2691C138.50085 90.6316 137.62429 90.6316 137.305542 90.6316V90.32285C137.5046 90.32285 138.09242 90.32285 138.61054 90.58191V85.421909C138.61054 85.063472 138.58054 84.943784 137.68398 84.943784H137.36523V84.635034C137.71398 84.665034 138.58054 84.665034 138.97898 84.665034S140.24398 84.665034 140.59273 84.635034V84.943784H140.27398C139.37742 84.943784 139.34773 85.053472 139.34773 85.421909V91.01035Z'/>
<path d='M143.124999 115.777343H145.121093' stroke='#000' fill='none' stroke-width='.79701' stroke-miterlimit='10'/>
<path d='M141.00117 115.75449C141.00117 116.55136 140.95148 117.34824 140.60273 118.08543C140.1446 119.04168 139.32773 119.20105 138.90929 119.20105C138.31148 119.20105 137.58429 118.9423 137.176167 118.01574C136.857417 117.32855 136.807417 116.55136 136.807417 115.75449C136.807417 115.00761 136.847417 114.11105 137.255854 113.353863C137.68398 112.546988 138.41117 112.347926 138.89929 112.347926C139.4371 112.347926 140.19429 112.556988 140.63273 113.503238C140.95148 114.19074 141.00117 114.96761 141.00117 115.75449ZM138.89929 112.566988C138.51085 112.566988 137.92304 112.816051 137.74367 113.7723C137.63429 114.37011 137.63429 115.28636 137.63429 115.87418C137.63429 116.51168 137.63429 117.16918 137.71398 117.70699C137.90335 118.8923 138.65023 118.98199 138.89929 118.98199C139.22804 118.98199 139.88554 118.80261 140.0746 117.81668C140.17429 117.25886 140.17429 116.50168 140.17429 115.87418C140.17429 115.12699 140.17429 114.4498 140.06492 113.81199C139.91523 112.865738 139.34773 112.566988 138.89929 112.566988Z'/>
<path d='M143.124999 144.125H145.121093' stroke='#000' fill='none' stroke-width='.79701' stroke-miterlimit='10'/>
<path d='M139.34773 147.28833C139.34773 147.5274 139.34773 147.54708 139.11835 147.54708C138.50085 146.90958 137.62429 146.90958 137.305542 146.90958V146.60083C137.5046 146.60083 138.09242 146.60083 138.61054 146.8599V141.699896C138.61054 141.341459 138.58054 141.221771 137.68398 141.221771H137.365229V140.913021C137.71398 140.943021 138.58054 140.943021 138.97898 140.943021S140.24398 140.943021 140.59273 140.913021V141.221771H140.27398C139.37742 141.221771 139.34773 141.331459 139.34773 141.699896V147.28833Z'/>
<path d='M143.124999 172.4687H145.121093' stroke='#000' fill='none' stroke-width='.79701' stroke-miterlimit='10'/>
<path d='M137.68398 170.026909L138.73992 171.05316C140.29398 172.42785 140.89148 172.96566 140.89148 173.9616C140.89148 175.09722 139.99492 175.8941 138.77992 175.8941C137.65429 175.8941 136.917104 174.97785 136.917104 174.09128C136.917104 173.53347 137.415229 173.53347 137.44492 173.53347C137.61429 173.53347 137.96304 173.65285 137.96304 174.06128C137.96304 174.32035 137.78367 174.57941 137.43492 174.57941C137.355229 174.57941 137.335542 174.57941 137.305542 174.56941C137.5346 175.21691 138.07242 175.58535 138.65023 175.58535C139.55679 175.58535 139.98523 174.77847 139.98523 173.9616C139.98523 173.16472 139.4871 172.37785 138.93929 171.76035L137.026479 169.628472C136.917104 169.519097 136.917104 169.499097 136.917104 169.260034H140.61273L140.89148 170.99316H140.64242C140.59273 170.69441 140.52304 170.256284 140.42335 170.106597C140.35367 170.026909 139.69617 170.026909 139.4771 170.026909H137.68398Z'/>
<path d='M143.124999 200.8164H145.121093' stroke='#000' fill='none' stroke-width='.79701' stroke-miterlimit='10'/>
<path d='M139.30773 201.11224C140.1246 201.3813 140.70242 202.07849 140.70242 202.86536C140.70242 203.68224 139.82585 204.24005 138.86929 204.24005C137.86335 204.24005 137.106167 203.64255 137.106167 202.88536C137.106167 202.55661 137.325542 202.36755 137.61429 202.36755C137.92304 202.36755 138.12242 202.58661 138.12242 202.87536C138.12242 203.37349 137.65429 203.37349 137.5046 203.37349C137.81367 203.86161 138.47085 203.99099 138.8296 203.99099C139.23804 203.99099 139.78585 203.77193 139.78585 202.87536C139.78585 202.75599 139.76585 202.17818 139.5071 201.73974C139.20804 201.26161 138.86929 201.23193 138.62054 201.22193C138.54085 201.21193 138.30179 201.19193 138.23179 201.19193C138.1521 201.18193 138.08242 201.17224 138.08242 201.07255C138.08242 200.96286 138.1521 200.96286 138.32148 200.96286H138.75992C139.57679 200.96286 139.94523 200.28568 139.94523 199.30943C139.94523 197.954739 139.25804 197.665677 138.8196 197.665677C138.39117 197.665677 137.64429 197.835052 137.295542 198.422864C137.64429 198.372864 137.95304 198.592239 137.95304 198.97068C137.95304 199.32943 137.68398 199.52849 137.395229 199.52849C137.156167 199.52849 136.837417 199.38911 136.837417 198.95068C136.837417 198.044427 137.76367 197.386927 138.8496 197.386927C140.06492 197.386927 140.97117 198.293177 140.97117 199.30943C140.97117 200.1263 140.34367 200.90318 139.30773 201.11224Z'/>
<path d='M87.4297 229.164L92.1523 211.0547L96.8789 194.5195L101.6016 179.5586L106.3242 166.1758L111.0508 154.3633L115.7734 144.1289L120.5 135.4648L125.2227 128.3789L129.9453 122.86719L134.67187 118.92969L139.39453 116.566406L144.121093 115.777343L148.84375 116.5625L153.56641 118.92187L158.293 122.85937L163.0156 128.3672L167.7422 135.4531L172.4648 144.1133L177.1875 154.3477L181.9141 166.1562L186.6367 179.5391L191.3633 194.4961L196.0859 211.0273L200.8086 229.137' stroke='#000' fill='none' stroke-width='.3985' stroke-miterlimit='10'/>
<path d='M193.81865 173.64438H194.67552C194.87458 173.64438 194.97427 173.64438 194.97427 173.84375C194.97427 173.95344 194.87458 173.95344 194.70521 173.95344H193.87865L194.08771 175.08875C194.12771 175.29813 194.26708 176.00532 194.32677 176.12469C194.41646 176.31407 194.58583 176.46344 194.7949 176.46344C194.8349 176.46344 195.09396 176.46344 195.28302 176.28407C194.8449 176.24438 194.74521 175.89563 194.74521 175.74625C194.74521 175.51719 194.92458 175.39782 195.11365 175.39782C195.37271 175.39782 195.66146 175.61688 195.66146 175.99532C195.66146 176.45344 195.20333 176.68282 194.7949 176.68282C194.45646 176.68282 193.82865 176.50344 193.5299 175.51719C193.47021 175.30813 193.44021 175.20844 193.20115 173.95344H192.51396C192.32458 173.95344 192.2149 173.95344 192.2149 173.76407C192.2149 173.64438 192.30458 173.64438 192.49396 173.64438H193.15146L192.40427 169.709691C192.2249 168.743441 192.05552 167.83719 191.53771 167.83719C191.49771 167.83719 191.24865 167.83719 191.059584 168.01625C191.51771 168.04625 191.6074 168.405 191.6074 168.55438C191.6074 168.783441 191.42802 168.902816 191.23896 168.902816C190.979896 168.902816 190.690834 168.683753 190.690834 168.30532C190.690834 167.85688 191.129271 167.61782 191.53771 167.61782C192.08552 167.61782 192.48396 168.20563 192.66333 168.58407C192.98208 169.211878 193.21115 170.417191 193.22115 170.486878L193.81865 173.64438Z'/>
<path d='M199.40921 167.26938C199.40921 167.29907 199.40921 167.31907 199.23984 167.48844C197.99484 168.743441 197.67609 170.626253 197.67609 172.15032C197.67609 173.88344 198.05453 175.61688 199.27984 176.86188C199.40921 176.98157 199.40921 177.00157 199.40921 177.03125C199.40921 177.10094 199.36921 177.13094 199.30953 177.13094C199.20984 177.13094 198.31359 176.45344 197.72578 175.18844C197.21765 174.09282 197.098276 172.98719 197.098276 172.15032C197.098276 171.37344 197.20765 170.168128 197.75578 169.042503C198.35328 167.81719 199.20984 167.16969 199.30953 167.16969C199.36921 167.16969 199.40921 167.19969 199.40921 167.26938Z'/>
<path d='M203.31421 172.66844C203.3739 172.92719 203.60296 173.84375 204.30015 173.84375C204.35015 173.84375 204.58921 173.84375 204.79828 173.71407C204.51953 173.66438 204.32015 173.41532 204.32015 173.17625C204.32015 173.01688 204.42984 172.82782 204.69859 172.82782C204.91796 172.82782 205.23671 173.00688 205.23671 173.40532C205.23671 173.92344 204.6489 174.06282 204.31015 174.06282C203.73234 174.06282 203.3839 173.535 203.26421 173.30594C203.01515 173.96313 202.47734 174.06282 202.18859 174.06282C201.15234 174.06282 200.584838 172.77782 200.584838 172.52875C200.584838 172.42938 200.684213 172.42938 200.704213 172.42938C200.783901 172.42938 200.813901 172.44907 200.833588 172.53875C201.17234 173.59469 201.82984 173.84375 202.16859 173.84375C202.35765 173.84375 202.7064 173.75407 202.7064 173.17625C202.7064 172.8675 202.53703 172.2 202.16859 170.80563C202.00921 170.187816 201.66046 169.769691 201.22234 169.769691C201.16234 169.769691 200.933276 169.769691 200.724213 169.899066C200.973276 169.948753 201.19234 170.158128 201.19234 170.436878C201.19234 170.70594 200.973276 170.78563 200.823901 170.78563C200.524838 170.78563 200.275776 170.526566 200.275776 170.207816C200.275776 169.749691 200.773901 169.550316 201.21234 169.550316C201.86984 169.550316 202.22828 170.247816 202.25828 170.307503C202.37765 169.939066 202.7364 169.550316 203.3339 169.550316C204.36015 169.550316 204.92765 170.83532 204.92765 171.08438C204.92765 171.18407 204.83828 171.18407 204.80828 171.18407C204.71859 171.18407 204.69859 171.14438 204.6789 171.07438C204.35015 170.008753 203.67265 169.769691 203.3539 169.769691C202.96546 169.769691 202.80609 170.088441 202.80609 170.426878C202.80609 170.646253 202.86578 170.86532 202.97546 171.30375L203.31421 172.66844Z'/>
<path d='M208.55972 172.15032C208.55972 172.92719 208.45035 174.1325 207.90222 175.25813C207.30472 176.48344 206.447849 177.13094 206.348474 177.13094C206.288474 177.13094 206.248786 177.09094 206.248786 177.03125C206.248786 177.00157 206.248786 176.98157 206.438161 176.80219C207.4141 175.81594 207.98191 174.23219 207.98191 172.15032C207.98191 170.446878 207.61347 168.693753 206.378161 167.43875C206.248786 167.31907 206.248786 167.29907 206.248786 167.26938C206.248786 167.20969 206.288474 167.16969 206.348474 167.16969C206.447849 167.16969 207.34441 167.84719 207.93222 169.112191C208.44035 170.207816 208.55972 171.31344 208.55972 172.15032Z'/>
<path d='M219.1651 172.91719C219.3145 172.91719 219.5039 172.91719 219.5039 173.11657C219.5039 173.31563 219.3145 173.31563 219.1751 173.31563H213.20824C213.06886 173.31563 212.87949 173.31563 212.87949 173.11657C212.87949 172.91719 213.06886 172.91719 213.21824 172.91719H219.1651ZM219.1751 170.98469C219.3145 170.98469 219.5039 170.98469 219.5039 171.18407C219.5039 171.38344 219.3145 171.38344 219.1651 171.38344H213.21824C213.06886 171.38344 212.87949 171.38344 212.87949 171.18407C212.87949 170.98469 213.06886 170.98469 213.20824 170.98469H219.1751Z'/>
<path d='M226.1662 172.66844C226.22589 172.92719 226.45495 173.84375 227.15214 173.84375C227.20214 173.84375 227.4412 173.84375 227.65027 173.71407C227.37152 173.66438 227.17214 173.41532 227.17214 173.17625C227.17214 173.01688 227.28183 172.82782 227.55058 172.82782C227.76995 172.82782 228.0887 173.00688 228.0887 173.40532C228.0887 173.92344 227.50089 174.06282 227.16214 174.06282C226.58433 174.06282 226.23589 173.535 226.1162 173.30594C225.86714 173.96313 225.32933 174.06282 225.04058 174.06282C224.00433 174.06282 223.436829 172.77782 223.436829 172.52875C223.436829 172.42938 223.536204 172.42938 223.556204 172.42938C223.635892 172.42938 223.665892 172.44907 223.685579 172.53875C224.02433 173.59469 224.68183 173.84375 225.02058 173.84375C225.20964 173.84375 225.55839 173.75407 225.55839 173.17625C225.55839 172.8675 225.38902 172.2 225.02058 170.80563C224.8612 170.187816 224.51245 169.769691 224.07433 169.769691C224.01433 169.769691 223.785267 169.769691 223.576204 169.899066C223.825267 169.948753 224.04433 170.158128 224.04433 170.436878C224.04433 170.70594 223.825267 170.78563 223.675892 170.78563C223.376829 170.78563 223.127767 170.526566 223.127767 170.207816C223.127767 169.749691 223.625892 169.550316 224.06433 169.550316C224.72183 169.550316 225.08027 170.247816 225.11027 170.307503C225.22964 169.939066 225.58839 169.550316 226.18589 169.550316C227.21214 169.550316 227.77964 170.83532 227.77964 171.08438C227.77964 171.18407 227.69027 171.18407 227.66027 171.18407C227.57058 171.18407 227.55058 171.14438 227.53089 171.07438C227.20214 170.008753 226.52464 169.769691 226.20589 169.769691C225.81745 169.769691 225.65808 170.088441 225.65808 170.426878C225.65808 170.646253 225.71777 170.86532 225.82745 171.30375L226.1662 172.66844Z'/>
<path d='M232.05449 174.5454H231.8173C231.79636 174.39196 231.72667 173.980402 231.63573 173.910714C231.58011 173.868839 231.04292 173.868839 230.94542 173.868839H229.66199C230.39417 174.51759 230.63855 174.7129 231.05699 175.04071C231.57323 175.45228 232.05449 175.88478 232.05449 176.54728C232.05449 177.39134 231.31511 177.90728 230.4223 177.90728C229.5573 177.90728 228.97136 177.30071 228.97136 176.65884C228.97136 176.30321 229.27136 176.26821 229.341048 176.26821C229.508548 176.26821 229.71074 176.38696 229.71074 176.6379C229.71074 176.76353 229.66199 177.00759 229.299173 177.00759C229.515423 177.5029 229.9898 177.65634 230.31761 177.65634C231.01511 177.65634 231.37792 177.11228 231.37792 176.54728C231.37792 175.9404 230.94542 175.45915 230.72199 175.20821L229.041048 173.547902C228.97136 173.485402 228.97136 173.471339 228.97136 173.276027H231.84511L232.05449 174.5454Z'/>
<path d='M87.4297 30.7383L93.9258 37.2344L100.4219 43.7266L106.918 50.2227L113.4141 56.7187L119.9102 63.2148L126.4062 69.7109L132.9023 76.207L139.39453 82.7031L145.89062 89.1992L152.38672 95.6953L158.8828 102.1914L165.3789 108.6875L171.875 115.183593L178.3711 121.67969L184.8672 128.1758L191.3633 134.6719L197.8594 141.168L204.3555 147.6602L210.8516 154.1562L217.3477 160.6523L223.8437 167.1484L230.3398 173.6445L236.8359 180.1406L243.3281 186.6367' stroke='#000' fill='none' stroke-width='.3985' stroke-miterlimit='10'/>
</g>
</g>
</svg>